﻿[
    {
        "_id": 1,
        "productKey": "Neapolitan Pizza",
        "productdescription": "Neapolitan is the original pizza. This delicious pie dates all the way back to 18th century in Naples, Italy. During this time, the poorer citizens of this seaside city frequently purchased food that was cheap and could be eaten quickly. Luckily for them, Neapolitan pizza – a flatbread with tomatoes, cheese, oil, and garlic – was affordable and readily available through numerous street vendors.",
        "pricePerUnit":15,   
        "ratings":5
    },
    {
        "_id":2,
        "productKey":"Chicago Pizza",
        "productdescription":"Chicago pizza, also commonly referred to as deep-dish pizza, gets its name from the city it was invented in. During the early 1900’s, Italian immigrants in the windy city were searching for something similar to the Neapolitan pizza that they knew and loved. Instead of imitating the notoriously thin pie, Ike Sewell had something else in mind.",
        "pricePerUnit":10,       
        "ratings":4.5
     },
    {
        "_id":3,
        "productKey":"New York Style Pizza",
        "productdescription":"While New York-style pizza isn’t exactly the original, it’s become the most popular and widespread choice in the United States. Even though Neapolitan and New York pizzas share similarities, there are distinct differences. Some people will tell you that it’s the minerals in the Big Apple’s water used to make the dough that makes this pizza stand out. However, in order to make a proper New York-style pie, the crust still needs to be thin, like a Neapolitan, but thick enough to fold a slice in half lengthwise. This simplifies eating the pizza without utensils, which is a necessity in New York City's fast-paced setting.",
        "pricePerUnit":17,    
        "ratings":4.3
     },
     {
        "_id":4,
        "productKey":"Sicilian Pizza",
        "productdescription":"Sicilian pizza, also known as sfincione, may seem like a distant cousin of a Chicago-style pie, but the two have their differences. It's not even the same pizza that you'd get in Sicily. So what’s the deal with this complicated pizza? Well, no matter what country you get this square cut, thick crust pizza from, it should always have a spongier consistency than other pizzas. However, sfincione is typically topped with a tomato sauce, onions, herbs, anchovies, and then covered with bread crumbs. This version is typically served on holidays like Christmas and New Year’s Eve in Sicily. But in America, Sicilian pizza features a simple combination of tomato sauce and mozzarella cheese and is eaten all year round.",
        "pricePerUnit":12,    
        "ratings":4.75

     },
     {
        "_id":5,
        "productKey":"Greek Pizza",
        "productdescription":"Despite its name, Greek pizza has nothing to do with Greek toppings, nor was it invented in Greece. In fact, pizza isn’t even a common dish in the Mediterranean country, despite its close location to pizza’s birth place, Italy. Greek pizza was created by Greek immigrants who came to America and were introduced to Italian pizza. Instead of following the strict guidelines of New York or Chicago-style, Greek pizza has its own rules. While this style has a crust that is puffier and chewier than thin crust pizzas, it’s not quite as thick as a deep-dish or Sicilian crust. Greek pizza also typically uses a tangy tomato paste that has a strong oregano flavor and is topped with a blend of mozzarella and cheddar cheese.",
        "pricePerUnit":15,       
        "ratings":4.5
     }
     
   
  

]